[
	{
		"id": 1,
		"result": {
			"status": "loggedIn",
			"sessionID": "23B55CAB6CED4AE089FF2D451391F113"
		},
		"method": "admin.login"
	},
	{
		"id": 2,
		"error": {
			"message": "Server error",
			"data": {
				"longMessage": "Cannot create job 12345 : job exists"
			},
			"code": -32100
		},
		"method": "job.create"
	},
	{
		"id": 3,
		"result": {
			"status": "loggedOut"
		},
		"method": "admin.logout"
	}
]