[
	{
		"id": 1,
		"result": {
			"status": "loggedIn",
			"sessionID": "57AD6D17D8D09A9280BAD9B9ACEE0F07"
		},
		"method": "admin.login"
	},
	{
		"id": 2,
		"result": {
			"ID": "890335",
			"class": "PageOrder"
		},
		"method": "document.create"
	},
	{
		"id": 3,
		"result": {
			"status": "loggedOut"
		},
		"method": "admin.logout"
	}
]